{
  "$schema": "https://docs.renovatebot.com/renovate-schema.json",
  "extends": [
    "local>trst-inc/renovate-config",
    ":pathSemanticCommitType(ci/*.yml,feat)"
  ],
  "gitlabci": {
    "fileMatch": ["^ci/.*\\.yml$"]
  },
  "gitlabci-include": {
    "fileMatch": ["^ci/.*\\.yml$"]
  }
}
